%YAML 1.1
%TAG !u! tag:unity3d.com,2011:
--- !u!114 &11400000
MonoBehaviour:
  m_ObjectHideFlags: 0
  m_CorrespondingSourceObject: {fileID: 0}
  m_PrefabInstance: {fileID: 0}
  m_PrefabAsset: {fileID: 0}
  m_GameObject: {fileID: 0}
  m_Enabled: 1
  m_EditorHideFlags: 0
  m_Script: {fileID: 11500000, guid: 807bd0318bc34fbdb9e0760a95c19304, type: 3}
  m_Name: Grenade
  m_EditorClassIdentifier: 
  _itemName: Grenade
  _description: Inflicts a huge amount of damage
  _itemSprite: {fileID: 21300000, guid: 5ef19ddfef50d034a9dc844409ffa6ed, type: 3}
  _mesh: {fileID: 10207, guid: 0000000000000000e000000000000000, type: 0}
  _consumeUponUse: 1
  _isUnique: 0
  _damage: 5
